<svg width="67" height="35" viewBox="0 0 67 35" fill="none" xmlns="http://www.w3.org/2000/svg">
<path d="M10.3881 19.7376C10.5323 19.4493 10.7149 19.0936 10.936 18.6707C11.1667 18.2382 11.4022 17.8057 11.6424 17.3731C11.8923 16.9406 12.1326 16.5321 12.3633 16.1476C12.6036 15.7632 12.8055 15.47 12.9689 15.2682C13.2476 14.9318 13.5359 14.6915 13.8339 14.5473C14.1319 14.4031 14.4058 14.331 14.6557 14.331C14.9056 14.331 15.1171 14.3839 15.2901 14.4896C15.4727 14.5953 15.6217 14.7395 15.737 14.9221C15.8524 15.0952 15.9389 15.3018 15.9965 15.5421C16.0542 15.7728 16.083 16.0227 16.083 16.2918C16.083 16.4456 16.0734 16.6474 16.0542 16.8973C16.0446 17.1473 16.0302 17.4164 16.011 17.7047C16.0013 17.9931 15.9869 18.291 15.9677 18.5986C15.9581 18.9062 15.9485 19.1945 15.9389 19.4637C16.083 19.1753 16.2464 18.8581 16.4291 18.5121C16.6117 18.1565 16.7943 17.8057 16.9769 17.4596C17.1692 17.1136 17.3518 16.7916 17.5248 16.4937C17.6978 16.1861 17.8564 15.9362 18.0006 15.7439C18.4139 15.1769 18.7983 14.7972 19.154 14.605C19.5192 14.4127 19.8412 14.3166 20.12 14.3166C20.4468 14.3166 20.7159 14.3791 20.9273 14.504C21.1388 14.6194 21.3022 14.7732 21.4175 14.9654C21.5425 15.148 21.629 15.3547 21.677 15.5854C21.7251 15.816 21.7491 16.0371 21.7491 16.2486C21.7491 16.5754 21.7251 16.9166 21.677 17.2722C21.629 17.6278 21.605 18.0508 21.605 18.5409C21.605 18.7428 21.6146 18.9446 21.6338 19.1465C21.653 19.3483 21.6915 19.5261 21.7491 19.6799C21.8164 19.8337 21.9173 19.9587 22.0519 20.0548C22.1865 20.1509 22.3691 20.199 22.5998 20.199C22.8497 20.199 23.0948 20.1365 23.3351 20.0115C23.5754 19.877 23.806 19.704 24.0271 19.4925C24.2482 19.281 24.4548 19.0408 24.6471 18.7716C24.8489 18.5025 25.0315 18.2334 25.1949 17.9642C25.3583 17.6951 25.5025 17.4404 25.6275 17.2001C25.7524 16.9502 25.8533 16.7388 25.9302 16.5657C25.9783 16.46 26.0456 16.3783 26.1321 16.3206C26.2186 16.263 26.3147 16.2341 26.4204 16.2341C26.5838 16.2341 26.7136 16.2966 26.8097 16.4216C26.9154 16.5369 26.9683 16.6619 26.9683 16.7964C26.9683 16.8637 26.9539 16.931 26.925 16.9983C26.8866 17.0752 26.8097 17.2386 26.6943 17.4885C26.579 17.7288 26.4252 18.0075 26.233 18.3247C26.0408 18.6323 25.8149 18.9591 25.5554 19.3051C25.3055 19.6511 25.0267 19.9731 24.7191 20.2711C24.4116 20.5594 24.08 20.7997 23.7243 20.9919C23.3687 21.1746 22.9938 21.2659 22.5998 21.2659C22.1769 21.2659 21.8308 21.189 21.5617 21.0352C21.3022 20.891 21.0907 20.694 20.9273 20.4441C20.7735 20.1942 20.6678 19.9058 20.6101 19.579C20.5525 19.2522 20.5236 18.911 20.5236 18.5554C20.5236 18.0844 20.5477 17.6519 20.5957 17.2578C20.6438 16.8541 20.6678 16.5417 20.6678 16.3206C20.6678 16.0804 20.6438 15.8977 20.5957 15.7728C20.5573 15.6478 20.5044 15.5613 20.4371 15.5133C20.3795 15.4556 20.3218 15.4268 20.2641 15.4268C20.2065 15.4171 20.1632 15.4123 20.1344 15.4123C19.9037 15.4123 19.6586 15.5421 19.3991 15.8016C19.1492 16.0515 18.8897 16.3879 18.6205 16.8108C18.3514 17.2338 18.0727 17.7143 17.7843 18.2526C17.5056 18.7909 17.222 19.3387 16.9337 19.8962C16.7703 20.2038 16.6309 20.4585 16.5156 20.6603C16.4098 20.8622 16.3041 21.0208 16.1984 21.1361C16.1023 21.2514 16.0062 21.3331 15.91 21.3812C15.8139 21.4293 15.7082 21.4533 15.5928 21.4533C15.3429 21.4533 15.1507 21.3668 15.0161 21.1938C14.8912 21.0208 14.8287 20.7949 14.8287 20.5161C14.8287 20.372 14.8335 20.1797 14.8431 19.9394C14.8527 19.6992 14.8624 19.4348 14.872 19.1465C14.8816 18.8581 14.896 18.5602 14.9152 18.2526C14.9344 17.945 14.9489 17.6519 14.9585 17.3731C14.9681 17.0848 14.9777 16.8301 14.9873 16.609C14.9969 16.3879 15.0017 16.2197 15.0017 16.1044C15.0017 15.8545 14.9585 15.6767 14.872 15.5709C14.7855 15.4556 14.6845 15.3979 14.5692 15.3979C14.4635 15.3979 14.3433 15.4364 14.2088 15.5133C14.0838 15.5902 13.9348 15.7391 13.7618 15.9602C13.6273 16.1332 13.4542 16.3879 13.2428 16.7243C13.0409 17.0511 12.8247 17.4164 12.594 17.8201C12.3633 18.2238 12.1326 18.6371 11.902 19.06C11.6809 19.4829 11.4887 19.8626 11.3253 20.199C11.1234 20.6027 10.9216 20.8766 10.7197 21.0208C10.5179 21.1746 10.3208 21.2514 10.1286 21.2514C9.84986 21.2514 9.64321 21.1697 9.50865 21.0063C9.37409 20.8333 9.3068 20.6075 9.3068 20.3287C9.3068 20.2999 9.31161 20.1269 9.32122 19.8097C9.34045 19.4925 9.35967 19.108 9.37889 18.6563C9.39812 18.1949 9.41734 17.7047 9.43656 17.1857C9.4654 16.6667 9.48943 16.1813 9.50865 15.7295C9.51826 15.4892 9.50865 15.2682 9.47982 15.0663C9.45098 14.8645 9.41253 14.7443 9.36448 14.7059C9.28758 14.7251 9.13379 14.9029 8.90311 15.2393C8.68205 15.5757 8.3985 16.1621 8.05248 16.9983C8.00442 17.104 7.93233 17.1857 7.83622 17.2434C7.7401 17.301 7.63918 17.3299 7.53345 17.3299C7.37005 17.3299 7.24029 17.277 7.14418 17.1713C7.04806 17.0559 7 16.9262 7 16.782C7 16.7147 7.01442 16.6426 7.04325 16.5657C7.47578 15.5373 7.88908 14.7828 8.28316 14.3022C8.67724 13.812 9.06171 13.5669 9.43656 13.5669C9.65763 13.5669 9.84025 13.6198 9.98443 13.7255C10.1382 13.8216 10.2584 13.9514 10.3449 14.1148C10.4314 14.2686 10.4938 14.4464 10.5323 14.6482C10.5707 14.8501 10.59 15.0471 10.59 15.2393C10.59 16.0948 10.5659 16.8781 10.5179 17.5894C10.4794 18.3007 10.4362 19.0167 10.3881 19.7376Z" fill="#272727"/>
<path d="M31.308 21.2226C31.6444 20.8862 31.9856 20.545 32.3316 20.199C32.6776 19.8433 33.014 19.4733 33.3408 19.0888C33.6676 18.7043 33.9704 18.3055 34.2491 17.8922C34.5375 17.4692 34.7922 17.0223 35.0133 16.5513C35.0613 16.4456 35.1286 16.3687 35.2151 16.3206C35.3016 16.263 35.3977 16.2341 35.5035 16.2341C35.6669 16.2341 35.7966 16.2918 35.8927 16.4072C35.9985 16.5225 36.0513 16.6522 36.0513 16.7964C36.0513 16.8733 36.0369 16.9454 36.0081 17.0127C35.7101 17.6374 35.3689 18.2093 34.9844 18.7284C34.6 19.2474 34.1963 19.7424 33.7734 20.2134C33.3504 20.6747 32.9227 21.1217 32.4902 21.5542C32.0577 21.9963 31.6444 22.4385 31.2503 22.8806C31.2118 23.5438 31.2118 24.207 31.2503 24.8702C31.2887 25.5431 31.308 26.2543 31.308 27.004C31.308 27.6192 31.2887 28.2343 31.2503 28.8495C31.2118 29.4646 31.1494 30.0509 31.0629 30.6084C30.9764 31.1755 30.8562 31.7042 30.7024 32.1944C30.5582 32.6845 30.3708 33.1075 30.1401 33.4631C29.9095 33.8283 29.6403 34.1119 29.3328 34.3137C29.0252 34.5252 28.6647 34.6309 28.2514 34.6309C27.569 34.6309 27.0452 34.3954 26.6799 33.9245C26.3147 33.4535 26.1321 32.7951 26.1321 31.9493C26.1321 31.4879 26.1801 30.9929 26.2762 30.4642C26.382 29.9356 26.5261 29.3877 26.7088 28.8206C26.8914 28.2632 27.1076 27.6961 27.3576 27.1194C27.6171 26.5427 27.8958 25.9804 28.1938 25.4325C28.4917 24.8847 28.8089 24.3608 29.1453 23.861C29.4817 23.3708 29.823 22.9239 30.169 22.5202C30.1882 22.0588 30.2074 21.5782 30.2266 21.0784C30.2555 20.5882 30.2843 20.1317 30.3131 19.7088C30.0632 20.1509 29.7509 20.5065 29.376 20.7757C29.0108 21.0448 28.6071 21.1794 28.1649 21.1794C27.4344 21.1794 26.8626 20.9343 26.4492 20.4441C26.0359 19.9539 25.8293 19.281 25.8293 18.4256C25.8293 17.8008 25.887 17.2338 26.0023 16.7243C26.1273 16.2053 26.257 15.7632 26.3916 15.3979C26.5358 15.0231 26.6655 14.7395 26.7809 14.5473C26.8962 14.3454 26.9539 14.2493 26.9539 14.2589C27.0596 14.0955 27.2086 14.0138 27.4008 14.0138C27.5642 14.0138 27.694 14.0715 27.7901 14.1869C27.8958 14.2926 27.9487 14.4175 27.9487 14.5617C27.9487 14.6674 27.9198 14.7636 27.8622 14.8501C27.8718 14.8404 27.8237 14.9221 27.718 15.0952C27.6219 15.2586 27.5113 15.4988 27.3864 15.816C27.271 16.1332 27.1605 16.5129 27.0548 16.955C26.9587 17.3972 26.9106 17.8825 26.9106 18.4112C26.9106 18.9398 27.0067 19.3531 27.199 19.6511C27.3912 19.9491 27.7036 20.098 28.1361 20.098C28.684 20.098 29.179 19.6944 29.6211 18.887C30.0632 18.07 30.4381 16.8877 30.7457 15.3403C30.7649 15.2153 30.8226 15.1144 30.9187 15.0375C31.0148 14.951 31.1301 14.9077 31.2647 14.9077C31.4185 14.9077 31.5482 14.9606 31.654 15.0663C31.7597 15.172 31.8126 15.3018 31.8126 15.4556C31.8126 15.4844 31.7933 15.6574 31.7549 15.9746C31.7165 16.2822 31.6684 16.6955 31.6107 17.2145C31.5627 17.7336 31.5098 18.3391 31.4521 19.0311C31.3945 19.7136 31.3464 20.4441 31.308 21.2226ZM30.1546 24.2791C29.722 24.9039 29.3231 25.5623 28.9579 26.2543C28.6023 26.9464 28.2947 27.6336 28.0352 28.316C27.7757 28.9985 27.5738 29.6521 27.4296 30.2768C27.2855 30.9016 27.2134 31.4591 27.2134 31.9493C27.2134 32.4491 27.2951 32.8383 27.4585 33.1171C27.6219 33.4054 27.8814 33.5496 28.237 33.5496C28.5542 33.5496 28.8329 33.391 29.0732 33.0738C29.3231 32.7662 29.5298 32.3241 29.6932 31.7474C29.8662 31.1707 29.996 30.4691 30.0825 29.6424C30.169 28.8255 30.2122 27.9075 30.2122 26.8887C30.2122 26.4754 30.2026 26.0573 30.1834 25.6344C30.1738 25.2115 30.1642 24.7597 30.1546 24.2791Z" fill="#272727"/>
<path d="M36.628 15.6863C36.5704 15.8401 36.4983 16.0131 36.4118 16.2053C36.3349 16.3975 36.2436 16.5994 36.1378 16.8108C36.0513 16.9742 35.96 17.104 35.8639 17.2001C35.7774 17.2866 35.6621 17.3299 35.5179 17.3299C35.3545 17.3299 35.2247 17.2818 35.1286 17.1857C35.0325 17.08 34.9844 16.9598 34.9844 16.8253C34.9844 16.7772 34.9892 16.7388 34.9988 16.7099C35.0085 16.6715 35.0325 16.6138 35.0709 16.5369C35.3208 16.0563 35.5035 15.6382 35.6188 15.2826C35.7438 14.9173 35.8447 14.5377 35.9216 14.1436C35.8543 13.9225 35.8062 13.7351 35.7774 13.5813C35.7486 13.4275 35.7341 13.2689 35.7341 13.1055C35.7341 12.7884 35.8014 12.5336 35.936 12.3414C36.0705 12.1396 36.258 12.0386 36.4983 12.0386C36.7193 12.0386 36.8923 12.1348 37.0173 12.327C37.1519 12.5192 37.2191 12.7547 37.2191 13.0335C37.2191 13.1872 37.2047 13.341 37.1759 13.4948C37.1471 13.6486 37.1086 13.8408 37.0606 14.0715C37.2816 14.6194 37.5027 15.1048 37.7238 15.5277C37.9448 15.9506 38.1419 16.3399 38.3149 16.6955C38.4879 17.0415 38.6273 17.3683 38.733 17.6759C38.8483 17.9835 38.906 18.291 38.906 18.5986C38.906 19.0023 38.8243 19.3868 38.6609 19.752C38.4975 20.1173 38.2284 20.4248 37.8535 20.6747C37.9016 20.6844 37.9496 20.6892 37.9977 20.6892C38.0458 20.6892 38.0938 20.6892 38.1419 20.6892C38.6897 20.6892 39.1943 20.5642 39.6557 20.3143C40.1171 20.0644 40.5304 19.7424 40.8956 19.3483C41.2705 18.9446 41.6021 18.5025 41.8904 18.0219C42.1788 17.5317 42.4287 17.0463 42.6401 16.5657C42.7363 16.3447 42.8708 16.2341 43.0438 16.2341C43.2072 16.2341 43.3322 16.2918 43.4187 16.4072C43.5148 16.5225 43.5629 16.6474 43.5629 16.782C43.5629 16.8589 43.5484 16.931 43.5196 16.9983C43.4139 17.2578 43.2745 17.5557 43.1015 17.8922C42.9381 18.219 42.7363 18.5602 42.496 18.9158C42.2653 19.2618 41.9962 19.603 41.6886 19.9394C41.381 20.2759 41.035 20.5786 40.6505 20.8478C40.2757 21.1073 39.8624 21.3139 39.4106 21.4677C38.9589 21.6311 38.4639 21.7128 37.9256 21.7128C37.2816 21.7128 36.6809 21.5975 36.1234 21.3668C35.5755 21.1457 35.1286 20.7757 34.7826 20.2566C34.7249 20.1701 34.6961 20.0788 34.6961 19.9827C34.6961 19.8385 34.7489 19.7136 34.8547 19.6078C34.97 19.4925 35.0998 19.4348 35.2439 19.4348C35.3977 19.4348 35.5275 19.4877 35.6332 19.5934C35.6428 19.6127 35.6765 19.6463 35.7341 19.6943C35.7918 19.7328 35.8591 19.7809 35.936 19.8385C36.0225 19.8866 36.1186 19.9298 36.2243 19.9683C36.3397 20.0067 36.455 20.026 36.5704 20.026C36.801 20.026 36.9933 19.9779 37.1471 19.8818C37.3105 19.7857 37.4402 19.6703 37.5363 19.5358C37.6324 19.3916 37.6997 19.2426 37.7382 19.0888C37.7862 18.9254 37.8103 18.786 37.8103 18.6707C37.8103 18.4304 37.7718 18.1901 37.6949 17.9498C37.618 17.7095 37.5171 17.4692 37.3922 17.229C37.2768 16.9887 37.1471 16.7436 37.0029 16.4937C36.8683 16.2341 36.7434 15.965 36.628 15.6863Z" fill="#272727"/>
<path d="M50.7284 17.0271C50.6226 17.2482 50.4881 17.5125 50.3247 17.8201C50.1709 18.118 49.9931 18.4304 49.7912 18.7572C49.5894 19.084 49.3635 19.4108 49.1136 19.7376C48.8637 20.0548 48.5898 20.3431 48.2918 20.6027C48.0035 20.8526 47.6911 21.0544 47.3547 21.2082C47.0279 21.3716 46.677 21.4533 46.3022 21.4533C45.7255 21.4533 45.2305 21.2755 44.8172 20.9198C44.4039 20.5642 44.0531 20.098 43.7647 19.5213C43.4764 18.9446 43.2409 18.291 43.0582 17.5606C42.8852 16.8205 42.7507 16.0707 42.6546 15.3114C42.5584 14.5425 42.4912 13.7976 42.4527 13.0767C42.4239 12.3558 42.4095 11.7166 42.4095 11.1592C42.4095 10.3518 42.4335 9.51557 42.4815 8.65052C42.5392 7.78547 42.6257 6.93964 42.7411 6.11303C42.8564 5.28643 43.0006 4.50308 43.1736 3.76298C43.3562 3.02288 43.5677 2.37409 43.808 1.81661C44.0579 1.25913 44.3414 0.816994 44.6586 0.490196C44.9758 0.163399 45.3362 0 45.7399 0C46.0571 0 46.3406 0.0768935 46.5905 0.230681C46.8501 0.374856 47.0663 0.615148 47.2393 0.951557C47.4123 1.28797 47.5469 1.7253 47.643 2.26355C47.7391 2.80181 47.7872 3.46021 47.7872 4.23875C47.7872 5.19992 47.6863 6.19473 47.4844 7.22318C47.2826 8.24202 47.0086 9.27047 46.6626 10.3085C46.3166 11.3466 45.9081 12.3847 45.4371 13.4227C44.9662 14.4512 44.4616 15.4556 43.9233 16.436C44.1636 17.6567 44.4856 18.6178 44.8893 19.3195C45.293 20.0115 45.7784 20.3576 46.3454 20.3576C46.7299 20.3576 47.1 20.2086 47.4556 19.9106C47.8112 19.603 48.138 19.2426 48.436 18.8293C48.7339 18.416 48.9935 17.9979 49.2145 17.575C49.4452 17.1424 49.623 16.7964 49.748 16.5369C49.796 16.4408 49.8633 16.3687 49.9498 16.3206C50.0363 16.263 50.1324 16.2341 50.2382 16.2341C50.4016 16.2341 50.5313 16.2918 50.6274 16.4072C50.7332 16.5225 50.786 16.6522 50.786 16.7964C50.786 16.8541 50.7668 16.931 50.7284 17.0271ZM43.5052 11.2313C43.5052 11.8464 43.5196 12.4375 43.5484 13.0046C43.5773 13.5717 43.6157 14.1148 43.6638 14.6338C44.0675 13.8552 44.4519 13.0286 44.8172 12.154C45.1824 11.2697 45.5044 10.3806 45.7832 9.48674C46.0619 8.58324 46.283 7.68935 46.4464 6.80508C46.6194 5.91119 46.7059 5.06055 46.7059 4.25317C46.7059 3.11899 46.6146 2.30681 46.4319 1.81661C46.2493 1.32641 46.0042 1.08131 45.6967 1.08131C45.4948 1.08131 45.2978 1.22068 45.1055 1.49942C44.9229 1.77816 44.7499 2.15782 44.5865 2.63841C44.4231 3.11899 44.2741 3.68608 44.1396 4.33968C44.005 4.99327 43.8897 5.69493 43.7935 6.44464C43.707 7.19435 43.6349 7.9777 43.5773 8.79469C43.5292 9.61169 43.5052 10.4239 43.5052 11.2313Z" fill="#272727"/>
<path d="M52.1125 9.703C52.1125 10.0682 51.9827 10.3806 51.7232 10.6401C51.4733 10.89 51.1657 11.015 50.8005 11.015C50.4352 11.015 50.1228 10.89 49.8633 10.6401C49.6134 10.3806 49.4885 10.0682 49.4885 9.703C49.4885 9.52038 49.5221 9.35217 49.5894 9.19839C49.6567 9.03499 49.748 8.89562 49.8633 8.78028C49.9883 8.65533 50.1276 8.55921 50.2814 8.49193C50.4448 8.42465 50.6178 8.391 50.8005 8.391C50.9831 8.391 51.1513 8.42465 51.3051 8.49193C51.4685 8.55921 51.6078 8.65533 51.7232 8.78028C51.8481 8.89562 51.9443 9.03499 52.0115 9.19839C52.0788 9.35217 52.1125 9.52038 52.1125 9.703ZM49.7768 18.1517C49.7768 16.7676 49.8633 15.3883 50.0363 14.0138C50.0556 13.8793 50.1132 13.7639 50.2093 13.6678C50.3151 13.5621 50.4496 13.5092 50.613 13.5092C50.7572 13.5092 50.8774 13.5669 50.9735 13.6822C51.0696 13.788 51.1176 13.9129 51.1176 14.0571C51.1176 14.1148 51.1032 14.2878 51.0744 14.5761C51.0552 14.8645 51.0263 15.2105 50.9879 15.6142C50.9591 16.0083 50.9302 16.4312 50.9014 16.8829C50.8822 17.3251 50.8725 17.7336 50.8725 18.1084C50.8725 18.6178 50.9206 19.0311 51.0167 19.3483C51.1225 19.6559 51.2522 19.8962 51.406 20.0692C51.5694 20.2422 51.7376 20.3576 51.9106 20.4152C52.0932 20.4729 52.2662 20.5017 52.4296 20.5017C52.6988 20.5017 52.9775 20.4056 53.2659 20.2134C53.5542 20.0211 53.8474 19.752 54.1453 19.406C54.4529 19.06 54.7605 18.6467 55.0681 18.1661C55.3756 17.6759 55.6784 17.1328 55.9764 16.5369C56.0244 16.4408 56.0917 16.3687 56.1782 16.3206C56.2647 16.263 56.3608 16.2341 56.4665 16.2341C56.6203 16.2341 56.7453 16.2918 56.8414 16.4072C56.9471 16.5225 57 16.6474 57 16.782C57 16.8781 56.9808 16.9598 56.9423 17.0271C56.827 17.2482 56.6828 17.5173 56.5098 17.8345C56.3368 18.1517 56.1398 18.4785 55.9187 18.8149C55.6976 19.1513 55.4525 19.4877 55.1834 19.8241C54.9239 20.1509 54.6451 20.4489 54.3472 20.718C54.0492 20.9775 53.7368 21.189 53.41 21.3524C53.0832 21.5158 52.7516 21.5975 52.4152 21.5975C51.9827 21.5975 51.603 21.5062 51.2762 21.3235C50.9494 21.1409 50.6707 20.8958 50.44 20.5882C50.219 20.2807 50.0507 19.9202 49.9354 19.5069C49.8297 19.084 49.7768 18.6323 49.7768 18.1517ZM51.3051 9.703C51.3051 9.56844 51.2522 9.4531 51.1465 9.35698C51.0504 9.25125 50.935 9.19839 50.8005 9.19839C50.6659 9.19839 50.5506 9.25125 50.4544 9.35698C50.3583 9.4531 50.3103 9.56844 50.3103 9.703C50.3103 9.83756 50.3583 9.9529 50.4544 10.049C50.5506 10.1451 50.6659 10.1932 50.8005 10.1932C50.935 10.1932 51.0504 10.1451 51.1465 10.049C51.2522 9.9529 51.3051 9.83756 51.3051 9.703Z" fill="#272727"/>
<path fill-rule="evenodd" clip-rule="evenodd" d="M34.4821 6.51269C35.1601 6.10548 35.7719 5.80743 35.7719 5.80743L32.2273 5.54084C31.5472 4.67813 31.3665 3.98458 31.2992 3.12632C31.2778 2.85354 31.2678 2.56412 31.2569 2.24734C31.2527 2.12526 31.2484 1.99911 31.2432 1.86829C30.9375 2.25397 30.6826 2.58911 30.4835 2.91492C30.1767 3.41716 30.0027 3.8972 29.9801 4.50595C29.9703 4.76811 29.9887 5.05413 30.0366 5.37607C29.7337 5.25984 29.4591 5.1747 29.1996 5.11426C28.6368 4.98316 28.1452 4.96822 27.5898 5.0041C27.2846 5.02382 26.9601 5.0589 26.5939 5.09848C26.5603 5.10211 26.5263 5.10578 26.492 5.10948L29.2909 7.54401L28.0843 11.0518C28.0843 11.0518 28.577 10.7535 29.1607 10.3818C29.9266 9.89422 30.849 9.28043 31.0207 9.04863C31.4983 9.23362 32.3181 9.97423 32.9474 10.5905C33.4424 11.0753 33.8195 11.4832 33.8195 11.4832C33.8195 11.4832 33.8097 10.923 33.7031 10.2128C33.5818 9.40492 33.3353 8.40296 32.8355 7.8106C33.1299 7.3878 33.8361 6.90069 34.4821 6.51269ZM33.174 6.4143L32.1673 6.33859C31.9439 6.32178 31.7377 6.21206 31.599 6.0361C31.2057 5.53711 30.9467 5.07037 30.7779 4.59494C30.7747 4.78745 30.7902 5.00501 30.8279 5.25828C30.8698 5.53964 30.7591 5.82208 30.5372 6.00008C30.3153 6.17809 30.0156 6.22488 29.75 6.12299C29.2781 5.94192 28.896 5.84719 28.5148 5.80865L29.8159 6.9404C30.0618 7.15431 30.1534 7.49602 30.0474 7.80423L29.5847 9.14932C29.722 9.05662 29.8519 8.96683 29.969 8.88316C30.1067 8.78469 30.2188 8.70021 30.3007 8.63307C30.3675 8.57835 30.392 8.55386 30.392 8.55386C30.6087 8.27827 30.981 8.17533 31.3096 8.30263C31.6487 8.43399 32.0137 8.69871 32.32 8.94559C32.4357 9.03882 32.5531 9.13799 32.6701 9.24012C32.5518 8.86153 32.4032 8.53883 32.224 8.3265C31.9905 8.04972 31.972 7.65058 32.179 7.3534C32.4045 7.02958 32.7468 6.73438 33.0679 6.49278C33.1028 6.46648 33.1382 6.44031 33.174 6.4143Z" fill="#272727"/>
<path fill-rule="evenodd" clip-rule="evenodd" d="M14.5 28.2C14.8866 28.2 15.2 27.8866 15.2 27.5C15.2 27.1134 14.8866 26.8 14.5 26.8C14.1134 26.8 13.8 27.1134 13.8 27.5C13.8 27.8866 14.1134 28.2 14.5 28.2ZM14.5 29C15.3284 29 16 28.3284 16 27.5C16 26.6716 15.3284 26 14.5 26C13.6716 26 13 26.6716 13 27.5C13 28.3284 13.6716 29 14.5 29Z" fill="#272727"/>
<path d="M18.1145 6.47446C18.052 6.58271 17.9635 6.6579 17.8489 6.70003C17.7451 6.7393 17.6337 6.72911 17.5148 6.66947L15.0696 5.42016L13.5846 7.59387C13.5125 7.68754 13.4197 7.74673 13.3062 7.77142C13.1995 7.80001 13.0954 7.78501 12.9939 7.72642C12.8924 7.66782 12.8259 7.57983 12.7945 7.46244C12.763 7.34505 12.7766 7.23561 12.8352 7.13412C12.8391 7.12735 12.9659 6.93896 13.2156 6.56893C13.4653 6.1989 13.8184 5.68107 14.2749 5.01544L11.8298 3.76613C11.7244 3.71431 11.6453 3.63256 11.5925 3.52088C11.5504 3.40635 11.5625 3.29157 11.6289 3.17655C11.6914 3.0683 11.7746 2.99454 11.8784 2.95527C11.993 2.91315 12.1097 2.9219 12.2286 2.98154L14.7651 4.28359C14.9875 3.96092 15.2216 3.61796 15.4674 3.25469C15.7171 2.88467 15.9819 2.4963 16.2618 2.08958C16.3272 1.992 16.4166 1.93086 16.5301 1.90617C16.6436 1.88149 16.7477 1.89648 16.8424 1.95117C16.9642 2.02148 17.0355 2.11677 17.0563 2.23702C17.0838 2.36118 17.0663 2.47738 17.0038 2.58564L15.5598 4.6883L17.9136 5.88488C18.0258 5.94061 18.0995 6.02379 18.1349 6.13442C18.177 6.24895 18.1702 6.3623 18.1145 6.47446Z" fill="#272727"/>
<path d="M40.2185 32.0523C40.1102 31.9898 40.035 31.9013 39.9929 31.7867C39.9536 31.6829 39.9638 31.5715 40.0234 31.4526L41.2728 29.0074L39.099 27.5224C39.0054 27.4503 38.9462 27.3575 38.9215 27.244C38.8929 27.1373 38.9079 27.0332 38.9665 26.9317C39.0251 26.8302 39.1131 26.7637 39.2305 26.7323C39.3479 26.7008 39.4573 26.7144 39.5588 26.773C39.5656 26.7769 39.754 26.9037 40.124 27.1534C40.494 27.4031 41.0118 27.7562 41.6775 28.2127L42.9268 25.7676C42.9786 25.6622 43.0604 25.5831 43.172 25.5303C43.2866 25.4882 43.4013 25.5003 43.5164 25.5667C43.6246 25.6292 43.6984 25.7124 43.7376 25.8163C43.7798 25.9308 43.771 26.0475 43.7114 26.1664L42.4093 28.7029C42.732 28.9253 43.075 29.1594 43.4382 29.4052C43.8082 29.6549 44.1966 29.9197 44.6033 30.1996C44.7009 30.265 44.762 30.3544 44.7867 30.4679C44.8114 30.5814 44.7964 30.6855 44.7417 30.7802C44.6714 30.902 44.5761 30.9733 44.4559 30.9941C44.3317 31.0216 44.2155 31.0042 44.1073 30.9417L42.0046 29.4976L40.808 31.8514C40.7523 31.9636 40.6691 32.0373 40.5585 32.0727C40.444 32.1148 40.3306 32.108 40.2185 32.0523Z" fill="#272727"/>
<path d="M7.30859 5.28125C7.32422 5.34375 7.33203 5.39453 7.33203 5.43359C7.33203 5.62891 7.23828 5.76953 7.05078 5.85547C6.95703 5.89453 6.85547 5.93359 6.74609 5.97266C6.64453 6.01172 6.51953 6.05078 6.37109 6.08984C6.23047 6.12109 6.0625 6.15234 5.86719 6.18359C5.67188 6.20703 5.44531 6.23047 5.1875 6.25391C4.86719 6.28516 4.55078 6.30469 4.23828 6.3125C3.92578 6.32031 3.66406 6.32812 3.45312 6.33594C3.44531 6.54688 3.42969 6.96094 3.40625 7.57812C3.39062 8.19531 3.37109 8.94141 3.34766 9.81641C3.32422 10.6836 3.29297 11.6484 3.25391 12.7109C3.22266 13.7734 3.19141 14.8594 3.16016 15.9688C3.12891 17.0781 3.09766 18.1758 3.06641 19.2617C3.03516 20.3398 3.00781 21.3398 2.98438 22.2617C2.96094 23.1836 2.9375 23.9844 2.91406 24.6641C2.89844 25.3516 2.89062 25.8477 2.89062 26.1523C3.24219 26.0508 3.58984 25.9688 3.93359 25.9062C4.28516 25.8438 4.58984 25.8125 4.84766 25.8125C5.12109 25.8125 5.32031 25.8398 5.44531 25.8945C5.57812 25.957 5.64453 26.082 5.64453 26.2695C5.64453 26.3945 5.60156 26.4961 5.51562 26.5742C5.42969 26.6602 5.32812 26.7031 5.21094 26.7031C5.1875 26.7031 5.14062 26.6992 5.07031 26.6914C5.00781 26.6914 4.94141 26.6914 4.87109 26.6914C4.77734 26.6914 4.66406 26.6953 4.53125 26.7031C4.39844 26.7188 4.26172 26.7383 4.12109 26.7617C3.69922 26.832 3.35547 26.9219 3.08984 27.0312C2.83203 27.1406 2.61719 27.1953 2.44531 27.1953C2.32812 27.1953 2.22266 27.1562 2.12891 27.0781C2.04297 27 2 26.8906 2 26.75C2 26.7422 2 26.6055 2 26.3398C2 26.082 2.00391 25.7188 2.01172 25.25C2.01953 24.7812 2.02734 24.2227 2.03516 23.5742C2.05078 22.918 2.06641 22.1953 2.08203 21.4062C2.09766 20.6094 2.11719 19.7617 2.14062 18.8633C2.17188 17.957 2.20703 17.0156 2.24609 16.0391C2.30078 14.5781 2.34766 13.2305 2.38672 11.9961C2.42578 10.7617 2.46094 9.69531 2.49219 8.79688C2.52344 7.89062 2.54688 7.18359 2.5625 6.67578C2.57812 6.16016 2.58594 5.89453 2.58594 5.87891C2.58594 5.76172 2.62891 5.66406 2.71484 5.58594C2.80078 5.5 2.90234 5.45703 3.01953 5.45703C3.01953 5.45703 3.08203 5.45703 3.20703 5.45703C3.33984 5.44922 3.50391 5.44531 3.69922 5.44531C3.90234 5.4375 4.12891 5.42969 4.37891 5.42188C4.62891 5.40625 4.875 5.38672 5.11719 5.36328C5.38281 5.33984 5.61328 5.30859 5.80859 5.26953C6.01172 5.23047 6.18359 5.19141 6.32422 5.15234C6.46484 5.11328 6.57812 5.07812 6.66406 5.04688C6.75781 5.01562 6.82812 5 6.875 5C6.96875 5 7.05469 5.02734 7.13281 5.08203C7.21094 5.12891 7.26953 5.19531 7.30859 5.28125Z" fill="#272727"/>
<path d="M61.6944 22.5413C61.6631 22.485 61.6425 22.4379 61.6323 22.4002C61.5818 22.2116 61.636 22.0515 61.7948 21.9199C61.8753 21.8579 61.9595 21.7949 62.0475 21.7309C62.143 21.6649 62.2536 21.5948 62.3794 21.5206C62.5147 21.452 62.6726 21.3774 62.8532 21.2966C63.0358 21.2234 63.2485 21.1422 63.4915 21.0528C63.7928 20.9397 64.0934 20.839 64.3932 20.7505C64.693 20.6621 64.9438 20.5868 65.1455 20.5247C65.0985 20.3189 65.0026 19.9159 64.858 19.3157C64.7209 18.7135 64.5514 17.9905 64.3496 17.1468C64.1458 16.2956 63.9215 15.3528 63.6767 14.3184C63.4394 13.282 63.1923 12.2239 62.9354 11.1443C62.6784 10.0646 62.4255 9.00004 62.1767 7.95056C61.9258 6.89354 61.6924 5.91676 61.4764 5.02023C61.2605 4.12371 61.0721 3.34515 60.9112 2.68458C60.7559 2.01444 60.6389 1.53222 60.56 1.23791C60.2467 1.42701 59.9284 1.59723 59.605 1.7486C59.2891 1.89794 59.0066 2.00597 58.7576 2.0727C58.4935 2.14347 58.2902 2.16963 58.1478 2.15118C58.0109 2.12316 57.9181 2.01859 57.8696 1.83748C57.8373 1.71674 57.8525 1.60752 57.9153 1.50981C57.976 1.40456 58.063 1.33677 58.1762 1.30644C58.1988 1.30038 58.2414 1.29303 58.3038 1.2844C58.3717 1.2662 58.4396 1.248 58.5075 1.2298C58.5981 1.20554 58.7065 1.17245 58.8327 1.13053C58.957 1.08106 59.084 1.02681 59.2137 0.967772C59.6031 0.790667 59.9118 0.614915 60.1401 0.440518C60.3759 0.264099 60.5693 0.155669 60.7202 0.115229C60.8334 0.0848987 60.9416 0.0963438 61.0448 0.149565C61.1556 0.200763 61.2292 0.294279 61.2656 0.430112C61.2676 0.437659 61.303 0.569719 61.3718 0.826293C61.4385 1.07532 61.5287 1.42723 61.6425 1.88203C61.7563 2.33683 61.8906 2.8832 62.0453 3.52113C62.2056 4.1495 62.3813 4.85056 62.5725 5.62433C62.7616 6.39055 62.9583 7.21539 63.1627 8.09885C63.3746 8.98028 63.5871 9.89393 63.8001 10.8398C64.1254 12.2651 64.4289 13.579 64.7107 14.7814C64.9924 15.9838 65.2355 17.0267 65.4398 17.9102C65.6422 18.7861 65.8025 19.4751 65.9209 19.9772C66.0393 20.4793 66.0994 20.7341 66.1015 20.7417C66.1318 20.8549 66.1156 20.9603 66.0528 21.058C65.992 21.1633 65.905 21.2311 65.7918 21.2614C65.7918 21.2614 65.7277 21.2786 65.5994 21.313C65.4807 21.3529 65.3232 21.3991 65.127 21.4517C64.9404 21.5098 64.7273 21.575 64.4879 21.6472C64.2504 21.727 64.0178 21.8096 63.7899 21.8949C63.5319 21.9883 63.3136 22.0791 63.135 22.1674C62.9565 22.2557 62.8043 22.3369 62.6786 22.411C62.5529 22.4852 62.4488 22.5495 62.3663 22.6039C62.2914 22.6563 62.2313 22.6886 62.186 22.7007C62.0955 22.725 62.0054 22.7208 61.9158 22.6882C61.8282 22.6632 61.7544 22.6142 61.6944 22.5413Z" fill="#272727"/>
<path fill-rule="evenodd" clip-rule="evenodd" d="M0 16.5C0 16.2238 0.223858 16 0.5 16H2.5C2.77614 16 3 16.2238 3 16.5C3 16.7761 2.77614 17 2.5 17H0.5C0.223858 17 0 16.7761 0 16.5Z" fill="#272727"/>
<path fill-rule="evenodd" clip-rule="evenodd" d="M65.9851 9.87871C66.052 10.1466 65.8892 10.4181 65.6213 10.485L63.6213 10.985C63.3534 11.052 63.0819 10.8891 63.0149 10.6212C62.948 10.3533 63.1108 10.0819 63.3787 10.0149L65.3787 9.5149C65.6466 9.44793 65.9181 9.61081 65.9851 9.87871Z" fill="#272727"/>
</svg>
